D:\Project\java2\CK_JAVA\1412385SpringMVC\src\main\java\controller\LoginController.java
D:\Project\java2\CK_JAVA\1412385SpringMVC\src\main\java\model\User.java
D:\Project\java2\CK_JAVA\1412385SpringMVC\src\main\java\model\Staff.java
D:\Project\java2\CK_JAVA\1412385SpringMVC\src\main\java\model\Product.java
D:\Project\java2\CK_JAVA\1412385SpringMVC\src\main\java\controller\HomeController.java
